{"albums":{"href":"https:\/\/api.spotify.com\/v1\/browse\/new-releases?country=GB&offset=0&limit=20","items":[{"album_type":"album","artists":[{"external_urls":{"spotify":"https:\/\/open.spotify.com\/artist\/1Xyo4u8uXC1ZmMpatF05PJ"},"href":"https:\/\/api.spotify.com\/v1\/artists\/1Xyo4u8uXC1ZmMpatF05PJ","id":"1Xyo4u8uXC1ZmMpatF05PJ","name":"The Weeknd","type":"artist","uri":"spotify:artist:1Xyo4u8uXC1ZmMpatF05PJ"}],"available_markets":["AD","AR","AT","AU","BE","BG","BO","BR","CH","CL","CO","CR","CY","CZ","DE","DK","DO","EC","EE","ES","FI","FR","GB","GR","GT","HK","HN","HU","ID","IE","IS","IT","JP","LI","LT","LU","LV","MC","MT","MY","NI","NL","NO","NZ","PA","PE","PH","PL","PT","PY","SE","SG","SK","SV","TR","TW","UY"],"external_urls":{"spotify":"https:\/\/open.spotify.com\/album\/09fggMHib4YkOtwQNXEBII"},"href":"https:\/\/api.spotify.com\/v1\/albums\/09fggMHib4YkOtwQNXEBII","id":"09fggMHib4YkOtwQNXEBII","images":[{"height":640,"url":"https:\/\/i.scdn.co\/image\/2c7ef91e8327dec51919d1f3be37a411b4028306","width":640},{"height":300,"url":"https:\/\/i.scdn.co\/image\/4816c45ce6ef1e45df6a84784d2123595f787182","width":300},{"height":64,"url":"https:\/\/i.scdn.co\/image\/a2c3947510abbeb764603aa53b96b33d97bd3ff0","width":64}],"name":"Starboy","type":"album","uri":"spotify:album:09fggMHib4YkOtwQNXEBII"},{"album_type":"single","artists":[{"external_urls":{"spotify":"https:\/\/open.spotify.com\/artist\/7k9T7lZlHjRAM1bb0r9Rm3"},"href":"https:\/\/api.spotify.com\/v1\/artists\/7k9T7lZlHjRAM1bb0r9Rm3","id":"7k9T7lZlHjRAM1bb0r9Rm3","name":"Wiley","type":"artist","uri":"spotify:artist:7k9T7lZlHjRAM1bb0r9Rm3"}],"available_markets":["AD","AR","AT","AU","BE","BG","BO","BR","CA","CH","CL","CO","CR","CY","CZ","DE","DK","DO","EC","EE","ES","FI","FR","GB","GR","GT","HK","HN","HU","ID","IE","IS","IT","JP","LI","LT","LU","LV","MC","MT","MX","MY","NI","NL","NO","NZ","PA","PE","PH","PL","PT","PY","SE","SG","SK","SV","TR","TW","US","UY"],"external_urls":{"spotify":"https:\/\/open.spotify.com\/album\/6btldPICfWvX9rBNFCnA7X"},"href":"https:\/\/api.spotify.com\/v1\/albums\/6btldPICfWvX9rBNFCnA7X","id":"6btldPICfWvX9rBNFCnA7X","images":[{"height":640,"url":"https:\/\/i.scdn.co\/image\/36989650564effa74c8088b2c6adacd16dc89aa6","width":640},{"height":300,"url":"https:\/\/i.scdn.co\/image\/dddcb2e62c3b6219eea99f8270e38c3714e8ecb6","width":300},{"height":64,"url":"https:\/\/i.scdn.co\/image\/573502df3f76980e787cb37d71eed665cb3b7ee5","width":64}],"name":"U Were Always, Pt.2 (feat. Skepta & Bellz)","type":"album","uri":"spotify:album:6btldPICfWvX9rBNFCnA7X"},{"album_type":"album","artists":[{"external_urls":{"spotify":"https:\/\/open.spotify.com\/artist\/25tMQOrIU4LlUo6Sv8v5SE"},"href":"https:\/\/api.spotify.com\/v1\/artists\/25tMQOrIU4LlUo6Sv8v5SE","id":"25tMQOrIU4LlUo6Sv8v5SE","name":"Gavin James","type":"artist","uri":"spotify:artist:25tMQOrIU4LlUo6Sv8v5SE"}],"available_markets":["AR","BO","BR","CL","CO","EC","FR","GB","HK","ID","JP","MY","PE","PH","PY","SG","TW","UY"],"external_urls":{"spotify":"https:\/\/open.spotify.com\/album\/12D7hRwbz2rQLin3AVHZce"},"href":"https:\/\/api.spotify.com\/v1\/albums\/12D7hRwbz2rQLin3AVHZce","id":"12D7hRwbz2rQLin3AVHZce","images":[{"height":640,"url":"https:\/\/i.scdn.co\/image\/a163e2731d0ca84a6f533c7334db59cbc57d5018","width":640},{"height":300,"url":"https:\/\/i.scdn.co\/image\/b16b88b5d734f7882a31cbece03728e059b0f786","width":300},{"height":64,"url":"https:\/\/i.scdn.co\/image\/590e1c65a73dbde1620e89ab57a09d966a3e3520","width":64}],"name":"Winter Songs","type":"album","uri":"spotify:album:12D7hRwbz2rQLin3AVHZce"},{"album_type":"single","artists":[{"external_urls":{"spotify":"https:\/\/open.spotify.com\/artist\/3t5xRXzsuZmMDkQzgOX35S"},"href":"https:\/\/api.spotify.com\/v1\/artists\/3t5xRXzsuZmMDkQzgOX35S","id":"3t5xRXzsuZmMDkQzgOX35S","name":"Robin Schulz","type":"artist","uri":"spotify:artist:3t5xRXzsuZmMDkQzgOX35S"},{"external_urls":{"spotify":"https:\/\/open.spotify.com\/artist\/1Cs0zKBU1kc0i8ypK3B9ai"},"href":"https:\/\/api.spotify.com\/v1\/artists\/1Cs0zKBU1kc0i8ypK3B9ai","id":"1Cs0zKBU1kc0i8ypK3B9ai","name":"David Guetta","type":"artist","uri":"spotify:artist:1Cs0zKBU1kc0i8ypK3B9ai"}],"available_markets":["AD","AR","AT","AU","BE","BG","BO","BR","CA","CH","CL","CO","CR","CY","CZ","DE","DK","DO","EC","EE","ES","FI","FR","GB","GR","GT","HK","HN","HU","ID","IE","IS","IT","JP","LI","LT","LU","LV","MC","MT","MX","MY","NI","NL","NO","NZ","PA","PE","PH","PL","PT","PY","SE","SG","SK","SV","TR","TW","US","UY"],"external_urls":{"spotify":"https:\/\/open.spotify.com\/album\/6yKhjUoOsHa60DSqpugerw"},"href":"https:\/\/api.spotify.com\/v1\/albums\/6yKhjUoOsHa60DSqpugerw","id":"6yKhjUoOsHa60DSqpugerw","images":[{"height":640,"url":"https:\/\/i.scdn.co\/image\/b783d2f34d20d8e443d7476bb260d594b36259bb","width":640},{"height":300,"url":"https:\/\/i.scdn.co\/image\/f5aab960423bd4fa20ee868b5f6bb90121addc9e","width":300},{"height":64,"url":"https:\/\/i.scdn.co\/image\/6866e83f292e1015852c62707a8adb9f27ef3066","width":64}],"name":"Shed A Light (feat. Cheat Codes)","type":"album","uri":"spotify:album:6yKhjUoOsHa60DSqpugerw"},{"album_type":"album","artists":[{"external_urls":{"spotify":"https:\/\/open.spotify.com\/artist\/3Z6IRCo7umuk8K2XQy0ZDj"},"href":"https:\/\/api.spotify.com\/v1\/artists\/3Z6IRCo7umuk8K2XQy0ZDj","id":"3Z6IRCo7umuk8K2XQy0ZDj","name":"Busted","type":"artist","uri":"spotify:artist:3Z6IRCo7umuk8K2XQy0ZDj"}],"available_markets":["AD","AR","AT","AU","BE","BG","BO","BR","CA","CH","CL","CO","CR","CY","CZ","DE","DK","DO","EC","EE","ES","FI","FR","GB","GR","GT","HK","HN","HU","ID","IE","IS","IT","JP","LI","LT","LU","LV","MC","MT","MX","MY","NI","NL","NO","NZ","PA","PE","PH","PL","PT","PY","SE","SG","SK","SV","TR","TW","UY"],"external_urls":{"spotify":"https:\/\/open.spotify.com\/album\/6GYMyRMFmGN1Sqxpg6dPvH"},"href":"https:\/\/api.spotify.com\/v1\/albums\/6GYMyRMFmGN1Sqxpg6dPvH","id":"6GYMyRMFmGN1Sqxpg6dPvH","images":[{"height":640,"url":"https:\/\/i.scdn.co\/image\/42cdb7f278cd12840eb7f469c00eed602aa753fe","width":640},{"height":300,"url":"https:\/\/i.scdn.co\/image\/878c038410ceca868b96c87c38dd7e22228c18d9","width":300},{"height":64,"url":"https:\/\/i.scdn.co\/image\/6291fefe669fafbdfbc7a99f7d3768823e344448","width":64}],"name":"Night Driver","type":"album","uri":"spotify:album:6GYMyRMFmGN1Sqxpg6dPvH"},{"album_type":"album","artists":[{"external_urls":{"spotify":"https:\/\/open.spotify.com\/artist\/6n1t55WMsSIUFHrAL4mUsB"},"href":"https:\/\/api.spotify.com\/v1\/artists\/6n1t55WMsSIUFHrAL4mUsB","id":"6n1t55WMsSIUFHrAL4mUsB","name":"Pete Tong","type":"artist","uri":"spotify:artist:6n1t55WMsSIUFHrAL4mUsB"}],"available_markets":["AD","AR","AT","AU","BE","BG","BO","BR","CH","CL","CO","CR","CY","CZ","DE","DK","DO","EC","EE","ES","FI","FR","GB","GR","GT","HK","HN","HU","ID","IE","IS","IT","JP","LI","LT","LU","LV","MC","MT","MY","NI","NL","NO","NZ","PA","PE","PH","PL","PT","PY","SE","SG","SK","SV","TR","TW","UY"],"external_urls":{"spotify":"https:\/\/open.spotify.com\/album\/1kZtvwkhK6eBCPjKurYxPl"},"href":"https:\/\/api.spotify.com\/v1\/albums\/1kZtvwkhK6eBCPjKurYxPl","id":"1kZtvwkhK6eBCPjKurYxPl","images":[{"height":640,"url":"https:\/\/i.scdn.co\/image\/ff591a28124183fbc05bc63d06924ccbff2f6ecd","width":640},{"height":300,"url":"https:\/\/i.scdn.co\/image\/1c5f0a65764d6f12ed738df13d4ef647dae5e5d9","width":300},{"height":64,"url":"https:\/\/i.scdn.co\/image\/44771c8043c5420eb63c341a2b22990f3961b1b9","width":64}],"name":"Classic House","type":"album","uri":"spotify:album:1kZtvwkhK6eBCPjKurYxPl"},{"album_type":"album","artists":[{"external_urls":{"spotify":"https:\/\/open.spotify.com\/artist\/0WSSKmoRbxqLf3MnXInQ2J"},"href":"https:\/\/api.spotify.com\/v1\/artists\/0WSSKmoRbxqLf3MnXInQ2J","id":"0WSSKmoRbxqLf3MnXInQ2J","name":"Max Cooper","type":"artist","uri":"spotify:artist:0WSSKmoRbxqLf3MnXInQ2J"}],"available_markets":["AD","AR","AT","AU","BE","BG","BO","BR","CA","CH","CL","CO","CR","CY","CZ","DE","DK","DO","EC","EE","ES","FI","FR","GB","GR","GT","HK","HN","HU","ID","IE","IS","IT","JP","LI","LT","LU","LV","MC","MT","MX","MY","NI","NL","NO","NZ","PA","PE","PH","PL","PT","PY","SE","SG","SK","SV","TR","TW","US","UY"],"external_urls":{"spotify":"https:\/\/open.spotify.com\/album\/26vmJ6CjPxYWYYa2B4d9my"},"href":"https:\/\/api.spotify.com\/v1\/albums\/26vmJ6CjPxYWYYa2B4d9my","id":"26vmJ6CjPxYWYYa2B4d9my","images":[{"height":640,"url":"https:\/\/i.scdn.co\/image\/800a47eef46391de2f6e50e26bdf9aa97abef90b","width":640},{"height":300,"url":"https:\/\/i.scdn.co\/image\/5f33042f977182f71becc292674fb4e375de299a","width":300},{"height":64,"url":"https:\/\/i.scdn.co\/image\/10ad4c541829a8766b55a9f2cea1f9233986a048","width":64}],"name":"Emergence","type":"album","uri":"spotify:album:26vmJ6CjPxYWYYa2B4d9my"},{"album_type":"single","artists":[{"external_urls":{"spotify":"https:\/\/open.spotify.com\/artist\/3oKRxpszQKUjjaHz388fVA"},"href":"https:\/\/api.spotify.com\/v1\/artists\/3oKRxpszQKUjjaHz388fVA","id":"3oKRxpszQKUjjaHz388fVA","name":"Parcels","type":"artist","uri":"spotify:artist:3oKRxpszQKUjjaHz388fVA"}],"available_markets":["AD","AR","AT","AU","BE","BG","BO","BR","CA","CH","CL","CO","CR","CY","CZ","DE","DK","DO","EC","EE","ES","FI","FR","GB","GR","GT","HK","HN","HU","ID","IE","IS","IT","JP","LI","LT","LU","LV","MC","MT","MX","MY","NI","NL","NO","NZ","PA","PE","PH","PL","PT","PY","SE","SG","SK","SV","TR","TW","US","UY"],"external_urls":{"spotify":"https:\/\/open.spotify.com\/album\/1W9LBC7i9su2Q5ioA1jf7f"},"href":"https:\/\/api.spotify.com\/v1\/albums\/1W9LBC7i9su2Q5ioA1jf7f","id":"1W9LBC7i9su2Q5ioA1jf7f","images":[{"height":640,"url":"https:\/\/i.scdn.co\/image\/5aa941cb9110b942ac311ab20e01a0e05f175f52","width":640},{"height":300,"url":"https:\/\/i.scdn.co\/image\/e154463f9d21c3f26af7afb66fe4e8feb28bc0e9","width":300},{"height":64,"url":"https:\/\/i.scdn.co\/image\/2e1989ab3f012d83e5dffec48c6e1a01d61ff1ae","width":64}],"name":"Older","type":"album","uri":"spotify:album:1W9LBC7i9su2Q5ioA1jf7f"},{"album_type":"single","artists":[{"external_urls":{"spotify":"https:\/\/open.spotify.com\/artist\/0szo1HPEWSAtMmIsby6j1b"},"href":"https:\/\/api.spotify.com\/v1\/artists\/0szo1HPEWSAtMmIsby6j1b","id":"0szo1HPEWSAtMmIsby6j1b","name":"Ronika","type":"artist","uri":"spotify:artist:0szo1HPEWSAtMmIsby6j1b"}],"available_markets":["AD","AR","AT","AU","BE","BG","BO","BR","CA","CH","CL","CO","CR","CY","CZ","DE","DK","DO","EC","EE","ES","FI","FR","GB","GR","GT","HK","HN","HU","ID","IE","IS","IT","JP","LI","LT","LU","LV","MC","MT","MX","MY","NI","NL","NO","NZ","PA","PE","PH","PL","PT","PY","SE","SG","SK","SV","TR","TW","US","UY"],"external_urls":{"spotify":"https:\/\/open.spotify.com\/album\/0Q6BMuOkw7LCwYTTcinqvL"},"href":"https:\/\/api.spotify.com\/v1\/albums\/0Q6BMuOkw7LCwYTTcinqvL","id":"0Q6BMuOkw7LCwYTTcinqvL","images":[{"height":640,"url":"https:\/\/i.scdn.co\/image\/c17d21e7433a56af8326db72e287c3e9c31ed88a","width":640},{"height":300,"url":"https:\/\/i.scdn.co\/image\/b33e05fee72105db59fa144523be74f98475c085","width":300},{"height":64,"url":"https:\/\/i.scdn.co\/image\/1433472057b49712b940e9dd87e397f53ae4cbfd","width":64}],"name":"Dissolve","type":"album","uri":"spotify:album:0Q6BMuOkw7LCwYTTcinqvL"},{"album_type":"album","artists":[{"external_urls":{"spotify":"https:\/\/open.spotify.com\/artist\/2H5elA2mJKrHmqkN9GSfkz"},"href":"https:\/\/api.spotify.com\/v1\/artists\/2H5elA2mJKrHmqkN9GSfkz","id":"2H5elA2mJKrHmqkN9GSfkz","name":"Gillian Welch","type":"artist","uri":"spotify:artist:2H5elA2mJKrHmqkN9GSfkz"}],"available_markets":["AD","AR","AT","AU","BE","BG","BO","BR","CH","CL","CO","CR","CY","CZ","DE","DK","DO","EC","EE","ES","FI","FR","GB","GR","GT","HK","HN","HU","ID","IE","IS","IT","JP","LI","LT","LU","LV","MC","MT","MX","MY","NI","NL","NO","NZ","PA","PE","PH","PL","PT","PY","SE","SG","SK","SV","TR","TW","UY"],"external_urls":{"spotify":"https:\/\/open.spotify.com\/album\/1Chqv6V7VBNuyoF0UeTSsk"},"href":"https:\/\/api.spotify.com\/v1\/albums\/1Chqv6V7VBNuyoF0UeTSsk","id":"1Chqv6V7VBNuyoF0UeTSsk","images":[{"height":640,"url":"https:\/\/i.scdn.co\/image\/1f5f6d38c0204df047e307b0ee6065d9aa4905c3","width":640},{"height":300,"url":"https:\/\/i.scdn.co\/image\/e45cf42127788c5856d0710798b4662d40300896","width":300},{"height":64,"url":"https:\/\/i.scdn.co\/image\/878933c51826bbcb76975920e686f0631141085e","width":64}],"name":"Boots No. 1: The Official Revival Bootleg","type":"album","uri":"spotify:album:1Chqv6V7VBNuyoF0UeTSsk"},{"album_type":"album","artists":[{"external_urls":{"spotify":"https:\/\/open.spotify.com\/artist\/6WjX4pepHwXa85B9KMk0PY"},"href":"https:\/\/api.spotify.com\/v1\/artists\/6WjX4pepHwXa85B9KMk0PY","id":"6WjX4pepHwXa85B9KMk0PY","name":"P Money","type":"artist","uri":"spotify:artist:6WjX4pepHwXa85B9KMk0PY"}],"available_markets":["AD","AR","AT","AU","BE","BG","BO","BR","CA","CH","CL","CO","CR","CY","CZ","DE","DK","DO","EC","EE","ES","FI","FR","GB","GR","GT","HK","HN","HU","ID","IE","IS","IT","JP","LI","LT","LU","LV","MC","MT","MX","MY","NI","NL","NO","NZ","PA","PE","PH","PL","PT","PY","SE","SG","SK","SV","TR","TW","US","UY"],"external_urls":{"spotify":"https:\/\/open.spotify.com\/album\/1FUEgwD1N7dEgZWXOdO5in"},"href":"https:\/\/api.spotify.com\/v1\/albums\/1FUEgwD1N7dEgZWXOdO5in","id":"1FUEgwD1N7dEgZWXOdO5in","images":[{"height":640,"url":"https:\/\/i.scdn.co\/image\/10e1c4c6a9622720d4443127b8fc2ae653534527","width":640},{"height":300,"url":"https:\/\/i.scdn.co\/image\/c04f382be659f5c541c16d475f5d57f9b8527649","width":300},{"height":64,"url":"https:\/\/i.scdn.co\/image\/e10e392c1113e7d4cdd9645390f7cfaee841eda0","width":64}],"name":"Live & Direct","type":"album","uri":"spotify:album:1FUEgwD1N7dEgZWXOdO5in"},{"album_type":"single","artists":[{"external_urls":{"spotify":"https:\/\/open.spotify.com\/artist\/68tR0TsEKX89ID4fyBMgch"},"href":"https:\/\/api.spotify.com\/v1\/artists\/68tR0TsEKX89ID4fyBMgch","id":"68tR0TsEKX89ID4fyBMgch","name":"James Vickery","type":"artist","uri":"spotify:artist:68tR0TsEKX89ID4fyBMgch"}],"available_markets":["AD","AR","AT","AU","BE","BG","BO","BR","CA","CH","CL","CO","CR","CY","CZ","DE","DK","DO","EC","EE","ES","FI","FR","GB","GR","GT","HK","HN","HU","ID","IE","IS","IT","JP","LI","LT","LU","LV","MC","MT","MX","MY","NI","NL","NO","NZ","PA","PE","PH","PL","PT","PY","SE","SG","SK","SV","TR","TW","US","UY"],"external_urls":{"spotify":"https:\/\/open.spotify.com\/album\/46vIz0NnWTmEraBfoBzZMp"},"href":"https:\/\/api.spotify.com\/v1\/albums\/46vIz0NnWTmEraBfoBzZMp","id":"46vIz0NnWTmEraBfoBzZMp","images":[{"height":640,"url":"https:\/\/i.scdn.co\/image\/f02d0917cea72e5a4a6e0a2c3330ff7b93cd35bb","width":640},{"height":300,"url":"https:\/\/i.scdn.co\/image\/5cc2ef2288d9e86b19cf4213e1a64532be55b255","width":300},{"height":64,"url":"https:\/\/i.scdn.co\/image\/f3591f7d6481a04f48f56664167de9d1f751453a","width":64}],"name":"Epiphany","type":"album","uri":"spotify:album:46vIz0NnWTmEraBfoBzZMp"},{"album_type":"single","artists":[{"external_urls":{"spotify":"https:\/\/open.spotify.com\/artist\/22bE4uQ6baNwSHPVcDxLCe"},"href":"https:\/\/api.spotify.com\/v1\/artists\/22bE4uQ6baNwSHPVcDxLCe","id":"22bE4uQ6baNwSHPVcDxLCe","name":"The Rolling Stones","type":"artist","uri":"spotify:artist:22bE4uQ6baNwSHPVcDxLCe"}],"available_markets":["AD","AR","AT","AU","BE","BG","BO","BR","CH","CL","CO","CR","CY","CZ","DE","DK","DO","EC","EE","ES","FI","FR","GB","GR","GT","HK","HN","HU","ID","IE","IS","IT","JP","LI","LT","LU","LV","MC","MT","MY","NI","NL","NO","NZ","PA","PE","PH","PL","PT","PY","SE","SG","SK","SV","TR","TW","UY"],"external_urls":{"spotify":"https:\/\/open.spotify.com\/album\/7vZsjJti4JhWR2RA0JZd6x"},"href":"https:\/\/api.spotify.com\/v1\/albums\/7vZsjJti4JhWR2RA0JZd6x","id":"7vZsjJti4JhWR2RA0JZd6x","images":[{"height":640,"url":"https:\/\/i.scdn.co\/image\/efb71914b3f787ddf8f2d2b397310f010f5fc214","width":640},{"height":300,"url":"https:\/\/i.scdn.co\/image\/ee89d30bc53f48850bf18e0d03cba4e6078a7a3f","width":300},{"height":64,"url":"https:\/\/i.scdn.co\/image\/90599a5d02827f68c88fcc99a04c3a67f5115564","width":64}],"name":"Ride 'Em On Down","type":"album","uri":"spotify:album:7vZsjJti4JhWR2RA0JZd6x"},{"album_type":"album","artists":[{"external_urls":{"spotify":"https:\/\/open.spotify.com\/artist\/0A0FS04o6zMoto8OKPsDwY"},"href":"https:\/\/api.spotify.com\/v1\/artists\/0A0FS04o6zMoto8OKPsDwY","id":"0A0FS04o6zMoto8OKPsDwY","name":"YG","type":"artist","uri":"spotify:artist:0A0FS04o6zMoto8OKPsDwY"}],"available_markets":["GB","ID","MY","TR"],"external_urls":{"spotify":"https:\/\/open.spotify.com\/album\/2wE8GlRIdLKpZDnK8Ltqod"},"href":"https:\/\/api.spotify.com\/v1\/albums\/2wE8GlRIdLKpZDnK8Ltqod","id":"2wE8GlRIdLKpZDnK8Ltqod","images":[{"height":640,"url":"https:\/\/i.scdn.co\/image\/810369304fbbe9a00b28cc12ee5eef6ec83eb07d","width":640},{"height":300,"url":"https:\/\/i.scdn.co\/image\/3320e407d5e02442fac1c6079f83d314908d200d","width":300},{"height":64,"url":"https:\/\/i.scdn.co\/image\/b936cba8fd17fea77fba7d6aa4de0a59dc001a03","width":64}],"name":"Red Friday","type":"album","uri":"spotify:album:2wE8GlRIdLKpZDnK8Ltqod"},{"album_type":"album","artists":[{"external_urls":{"spotify":"https:\/\/open.spotify.com\/artist\/1fQDzf4lnUF4DYngrLJH0m"},"href":"https:\/\/api.spotify.com\/v1\/artists\/1fQDzf4lnUF4DYngrLJH0m","id":"1fQDzf4lnUF4DYngrLJH0m","name":"letherette","type":"artist","uri":"spotify:artist:1fQDzf4lnUF4DYngrLJH0m"}],"available_markets":["AD","AR","AT","BE","BG","BO","BR","CA","CH","CL","CO","CR","CY","CZ","DE","DK","DO","EC","EE","ES","FI","FR","GB","GR","GT","HK","HN","HU","ID","IE","IS","IT","LI","LT","LU","LV","MC","MT","MX","MY","NI","NL","NO","PA","PE","PH","PL","PT","PY","SE","SG","SK","SV","TR","TW","US","UY"],"external_urls":{"spotify":"https:\/\/open.spotify.com\/album\/0NpwducEL7pD1Rb6gYGxXR"},"href":"https:\/\/api.spotify.com\/v1\/albums\/0NpwducEL7pD1Rb6gYGxXR","id":"0NpwducEL7pD1Rb6gYGxXR","images":[{"height":640,"url":"https:\/\/i.scdn.co\/image\/ac8ccf7f7c2a9d7ec2a3df5b5cfbce82dc865232","width":640},{"height":300,"url":"https:\/\/i.scdn.co\/image\/cd2a34a3e5eb5da8cfe912e91261416a67c081f8","width":300},{"height":64,"url":"https:\/\/i.scdn.co\/image\/c7051f653c2e8b6274879eaba647015438f82112","width":64}],"name":"Last Night On The Planet","type":"album","uri":"spotify:album:0NpwducEL7pD1Rb6gYGxXR"},{"album_type":"album","artists":[{"external_urls":{"spotify":"https:\/\/open.spotify.com\/artist\/2xchSUK5lpbZck9zxSQTys"},"href":"https:\/\/api.spotify.com\/v1\/artists\/2xchSUK5lpbZck9zxSQTys","id":"2xchSUK5lpbZck9zxSQTys","name":"Jay Daniel","type":"artist","uri":"spotify:artist:2xchSUK5lpbZck9zxSQTys"}],"available_markets":["AD","AR","AT","BE","BG","BO","BR","CA","CH","CL","CO","CR","CY","CZ","DE","DK","DO","EC","EE","ES","FI","FR","GB","GR","GT","HK","HN","HU","ID","IE","IS","IT","LI","LT","LU","LV","MC","MT","MX","MY","NI","NL","NO","PA","PE","PH","PL","PT","PY","SE","SG","SK","SV","TR","TW","US","UY"],"external_urls":{"spotify":"https:\/\/open.spotify.com\/album\/3hQivwEp5UQZzhBrkGDvq1"},"href":"https:\/\/api.spotify.com\/v1\/albums\/3hQivwEp5UQZzhBrkGDvq1","id":"3hQivwEp5UQZzhBrkGDvq1","images":[{"height":640,"url":"https:\/\/i.scdn.co\/image\/97cb1e5deedd8ef0c2c7d2296863c0fbc18a9667","width":640},{"height":300,"url":"https:\/\/i.scdn.co\/image\/9e02f1115bd1ffad12cb83efbcf4a4528107b726","width":300},{"height":64,"url":"https:\/\/i.scdn.co\/image\/d3a207841c5f4c04f2a7cb8e9959a66cddbcf975","width":64}],"name":"Broken Knowz","type":"album","uri":"spotify:album:3hQivwEp5UQZzhBrkGDvq1"},{"album_type":"album","artists":[{"external_urls":{"spotify":"https:\/\/open.spotify.com\/artist\/25bvQC4jyyFUce6jbzNlwb"},"href":"https:\/\/api.spotify.com\/v1\/artists\/25bvQC4jyyFUce6jbzNlwb","id":"25bvQC4jyyFUce6jbzNlwb","name":"Bright Light Bright Light","type":"artist","uri":"spotify:artist:25bvQC4jyyFUce6jbzNlwb"}],"available_markets":["AD","AR","AT","AU","BE","BG","BO","BR","CA","CH","CL","CO","CR","CY","CZ","DE","DK","DO","EC","EE","ES","FI","FR","GB","GR","GT","HK","HN","HU","ID","IE","IS","IT","JP","LI","LT","LU","LV","MC","MT","MX","MY","NI","NL","NO","NZ","PA","PE","PH","PL","PT","PY","SE","SG","SK","SV","TR","TW","US","UY"],"external_urls":{"spotify":"https:\/\/open.spotify.com\/album\/3zmPS4tcAt3xIGRs4vjetV"},"href":"https:\/\/api.spotify.com\/v1\/albums\/3zmPS4tcAt3xIGRs4vjetV","id":"3zmPS4tcAt3xIGRs4vjetV","images":[{"height":627,"url":"https:\/\/i.scdn.co\/image\/7abc04a1664b1ef72a690afee3b7da1f7625f3bd","width":640},{"height":294,"url":"https:\/\/i.scdn.co\/image\/71a556ded6c092acf2f569490e1ac0b5fb0a4a23","width":300},{"height":63,"url":"https:\/\/i.scdn.co\/image\/777c009ce1529b90bdfabd93b125627113ca2e4b","width":64}],"name":"Cinematography","type":"album","uri":"spotify:album:3zmPS4tcAt3xIGRs4vjetV"},{"album_type":"album","artists":[{"external_urls":{"spotify":"https:\/\/open.spotify.com\/artist\/7y97mc3bZRFXzT2szRM4L4"},"href":"https:\/\/api.spotify.com\/v1\/artists\/7y97mc3bZRFXzT2szRM4L4","id":"7y97mc3bZRFXzT2szRM4L4","name":"Fr\u00e9d\u00e9ric Chopin","type":"artist","uri":"spotify:artist:7y97mc3bZRFXzT2szRM4L4"},{"external_urls":{"spotify":"https:\/\/open.spotify.com\/artist\/1p0J5PXJQMVqk5uVV4T1ja"},"href":"https:\/\/api.spotify.com\/v1\/artists\/1p0J5PXJQMVqk5uVV4T1ja","id":"1p0J5PXJQMVqk5uVV4T1ja","name":"Seong-Jin Cho","type":"artist","uri":"spotify:artist:1p0J5PXJQMVqk5uVV4T1ja"},{"external_urls":{"spotify":"https:\/\/open.spotify.com\/artist\/5yxyJsFanEAuwSM5kOuZKc"},"href":"https:\/\/api.spotify.com\/v1\/artists\/5yxyJsFanEAuwSM5kOuZKc","id":"5yxyJsFanEAuwSM5kOuZKc","name":"London Symphony Orchestra","type":"artist","uri":"spotify:artist:5yxyJsFanEAuwSM5kOuZKc"},{"external_urls":{"spotify":"https:\/\/open.spotify.com\/artist\/4ZfhELUmrY86zwcJHY2q19"},"href":"https:\/\/api.spotify.com\/v1\/artists\/4ZfhELUmrY86zwcJHY2q19","id":"4ZfhELUmrY86zwcJHY2q19","name":"Gianandrea Noseda","type":"artist","uri":"spotify:artist:4ZfhELUmrY86zwcJHY2q19"}],"available_markets":["AD","AR","AT","AU","BE","BG","BO","BR","CH","CL","CO","CR","CY","CZ","DE","DK","DO","EC","EE","ES","FI","FR","GB","GR","GT","HK","HN","HU","ID","IE","IS","IT","JP","LI","LT","LU","LV","MC","MT","MY","NI","NL","NO","NZ","PA","PE","PH","PL","PT","PY","SE","SG","SK","SV","TR","TW","UY"],"external_urls":{"spotify":"https:\/\/open.spotify.com\/album\/2bIJ4ctfpmmWdV7TF1AsX6"},"href":"https:\/\/api.spotify.com\/v1\/albums\/2bIJ4ctfpmmWdV7TF1AsX6","id":"2bIJ4ctfpmmWdV7TF1AsX6","images":[{"height":640,"url":"https:\/\/i.scdn.co\/image\/420a329d281e569ce6ca9ca7a1a31b7e54f80676","width":640},{"height":300,"url":"https:\/\/i.scdn.co\/image\/a4dcf2d1d8cecd0d9987a9cf61448f5105bb7034","width":300},{"height":64,"url":"https:\/\/i.scdn.co\/image\/74576f3a7416c9d9a7c09144c2242a331e8295cd","width":64}],"name":"Chopin: Piano Concerto No. 1; Ballades","type":"album","uri":"spotify:album:2bIJ4ctfpmmWdV7TF1AsX6"},{"album_type":"album","artists":[{"external_urls":{"spotify":"https:\/\/open.spotify.com\/artist\/4RVnAU35WRWra6OZ3CbbMA"},"href":"https:\/\/api.spotify.com\/v1\/artists\/4RVnAU35WRWra6OZ3CbbMA","id":"4RVnAU35WRWra6OZ3CbbMA","name":"Kylie Minogue","type":"artist","uri":"spotify:artist:4RVnAU35WRWra6OZ3CbbMA"}],"available_markets":["AD","AR","AT","AU","BE","BG","BO","BR","CA","CH","CL","CO","CR","CY","CZ","DE","DK","DO","EC","EE","ES","FI","GB","GR","GT","HK","HN","HU","ID","IE","IS","IT","JP","LI","LT","LU","LV","MC","MT","MX","MY","NI","NL","NO","NZ","PA","PE","PH","PL","PT","PY","SE","SG","SK","SV","TR","TW","US","UY"],"external_urls":{"spotify":"https:\/\/open.spotify.com\/album\/27kFmSAWcM5QRPzpbl1gvI"},"href":"https:\/\/api.spotify.com\/v1\/albums\/27kFmSAWcM5QRPzpbl1gvI","id":"27kFmSAWcM5QRPzpbl1gvI","images":[{"height":640,"url":"https:\/\/i.scdn.co\/image\/abde0cce8a85b4ec71fc3f94fa3d5d8a82b804e9","width":640},{"height":300,"url":"https:\/\/i.scdn.co\/image\/66c41523a0aae65e5ea12da9a9b04e4096d58292","width":300},{"height":64,"url":"https:\/\/i.scdn.co\/image\/90da5e4514a33ca4815450348df9c0152fd50bcc","width":64}],"name":"Kylie Christmas (Snow Queen Edition)","type":"album","uri":"spotify:album:27kFmSAWcM5QRPzpbl1gvI"},{"album_type":"album","artists":[{"external_urls":{"spotify":"https:\/\/open.spotify.com\/artist\/3e7awlrlDSwF3iM0WBjGMp"},"href":"https:\/\/api.spotify.com\/v1\/artists\/3e7awlrlDSwF3iM0WBjGMp","id":"3e7awlrlDSwF3iM0WBjGMp","name":"Little Mix","type":"artist","uri":"spotify:artist:3e7awlrlDSwF3iM0WBjGMp"}],"available_markets":["AD","AR","AT","AU","BE","BG","BO","BR","CA","CH","CL","CO","CR","CY","CZ","DE","DK","DO","EC","EE","ES","FI","FR","GB","GR","GT","HK","HN","HU","ID","IE","IS","IT","JP","LI","LT","LU","LV","MC","MT","MX","MY","NI","NL","NO","NZ","PA","PE","PH","PL","PT","PY","SE","SG","SK","SV","TR","TW","US","UY"],"external_urls":{"spotify":"https:\/\/open.spotify.com\/album\/2GJLzxAajkFeyDPVH7X4Cs"},"href":"https:\/\/api.spotify.com\/v1\/albums\/2GJLzxAajkFeyDPVH7X4Cs","id":"2GJLzxAajkFeyDPVH7X4Cs","images":[{"height":640,"url":"https:\/\/i.scdn.co\/image\/07e3c2447a9d34fa961e2c5928bfd51e2b2a4f5e","width":640},{"height":300,"url":"https:\/\/i.scdn.co\/image\/becbe3bc62dafa4ab9edd7ef313f6ab3fe38b5b6","width":300},{"height":64,"url":"https:\/\/i.scdn.co\/image\/993d33e4ed63556776ab88cff168d5ec3fa3826a","width":64}],"name":"Glory Days (Deluxe)","type":"album","uri":"spotify:album:2GJLzxAajkFeyDPVH7X4Cs"}],"limit":20,"next":"https:\/\/api.spotify.com\/v1\/browse\/new-releases?country=GB&offset=20&limit=20","offset":0,"previous":null,"total":499}}